EESchema Schematic File Version 4
EELAYER 30 0
EELAYER END
$Descr A4 11693 8268
encoding utf-8
Sheet 1 1
Title "Xtal test circuit"
Date ""
Rev ""
Comp ""
Comment1 ""
Comment2 ""
Comment3 ""
Comment4 ""
$EndDescr
$Comp
L Transistor_BJT:PN2222A Q1
U 1 1 600F0366
P 4000 3000
F 0 "Q1" H 4190 3046 50  0000 L CNN
F 1 "PN2222A" H 4190 2955 50  0000 L CNN
F 2 "Package_TO_SOT_THT:TO-92_Inline" H 4200 2925 50  0001 L CIN
F 3 "http://www.fairchildsemi.com/ds/PN/PN2222A.pdf" H 4000 3000 50  0001 L CNN
	1    4000 3000
	1    0    0    -1  
$EndComp
$Comp
L power:PWR_FLAG #FLG01
U 1 1 600F14F0
P 5000 1650
F 0 "#FLG01" H 5000 1725 50  0001 C CNN
F 1 "PWR_FLAG" H 5000 1823 50  0000 C CNN
F 2 "" H 5000 1650 50  0001 C CNN
F 3 "~" H 5000 1650 50  0001 C CNN
	1    5000 1650
	1    0    0    -1  
$EndComp
$Comp
L power:PWR_FLAG #FLG02
U 1 1 600F19C8
P 5450 1650
F 0 "#FLG02" H 5450 1725 50  0001 C CNN
F 1 "PWR_FLAG" H 5450 1823 50  0000 C CNN
F 2 "" H 5450 1650 50  0001 C CNN
F 3 "~" H 5450 1650 50  0001 C CNN
	1    5450 1650
	1    0    0    -1  
$EndComp
$Comp
L power:GND #PWR04
U 1 1 600F209B
P 5450 1650
F 0 "#PWR04" H 5450 1400 50  0001 C CNN
F 1 "GND" H 5455 1477 50  0000 C CNN
F 2 "" H 5450 1650 50  0001 C CNN
F 3 "" H 5450 1650 50  0001 C CNN
	1    5450 1650
	1    0    0    -1  
$EndComp
$Comp
L power:VCC #PWR03
U 1 1 600F2641
P 5000 1650
F 0 "#PWR03" H 5000 1500 50  0001 C CNN
F 1 "VCC" H 5015 1823 50  0000 C CNN
F 2 "" H 5000 1650 50  0001 C CNN
F 3 "" H 5000 1650 50  0001 C CNN
	1    5000 1650
	-1   0    0    1   
$EndComp
$Comp
L Device:R R2
U 1 1 600F292F
P 4100 2450
F 0 "R2" H 4170 2496 50  0000 L CNN
F 1 "100" H 4170 2405 50  0000 L CNN
F 2 "" V 4030 2450 50  0001 C CNN
F 3 "~" H 4100 2450 50  0001 C CNN
	1    4100 2450
	1    0    0    -1  
$EndComp
$Comp
L Device:R R1
U 1 1 600F305E
P 3300 2450
F 0 "R1" H 3370 2496 50  0000 L CNN
F 1 "47k" H 3370 2405 50  0000 L CNN
F 2 "" V 3230 2450 50  0001 C CNN
F 3 "~" H 3300 2450 50  0001 C CNN
	1    3300 2450
	1    0    0    -1  
$EndComp
$Comp
L power:VCC #PWR02
U 1 1 600F3A74
P 3700 2100
F 0 "#PWR02" H 3700 1950 50  0001 C CNN
F 1 "VCC" H 3715 2273 50  0000 C CNN
F 2 "" H 3700 2100 50  0001 C CNN
F 3 "" H 3700 2100 50  0001 C CNN
	1    3700 2100
	1    0    0    -1  
$EndComp
Wire Wire Line
	4100 2300 4100 2100
Wire Wire Line
	4100 2100 3700 2100
Wire Wire Line
	3700 2100 3300 2100
Wire Wire Line
	3300 2100 3300 2300
Connection ~ 3700 2100
Wire Wire Line
	4100 2600 4100 2700
$Comp
L Device:C C4
U 1 1 600F401D
P 4600 2700
F 0 "C4" V 4852 2700 50  0000 C CNN
F 1 "100nF" V 4761 2700 50  0000 C CNN
F 2 "" H 4638 2550 50  0001 C CNN
F 3 "~" H 4600 2700 50  0001 C CNN
	1    4600 2700
	0    -1   -1   0   
$EndComp
Wire Wire Line
	4450 2700 4100 2700
Connection ~ 4100 2700
Wire Wire Line
	4100 2700 4100 2800
Text GLabel 5000 2700 2    50   Input ~ 0
OUT
Wire Wire Line
	5000 2700 4750 2700
$Comp
L Device:R R3
U 1 1 600F4C05
P 4100 3850
F 0 "R3" H 4170 3896 50  0000 L CNN
F 1 "680" H 4170 3805 50  0000 L CNN
F 2 "" V 4030 3850 50  0001 C CNN
F 3 "~" H 4100 3850 50  0001 C CNN
	1    4100 3850
	1    0    0    -1  
$EndComp
Wire Wire Line
	4100 3200 4100 3600
$Comp
L Device:C C2
U 1 1 600F5078
P 3600 3300
F 0 "C2" H 3715 3346 50  0000 L CNN
F 1 "220pF" H 3715 3255 50  0000 L CNN
F 2 "" H 3638 3150 50  0001 C CNN
F 3 "~" H 3600 3300 50  0001 C CNN
	1    3600 3300
	1    0    0    -1  
$EndComp
$Comp
L Device:C C3
U 1 1 600F575C
P 3600 3850
F 0 "C3" H 3715 3896 50  0000 L CNN
F 1 "220pF" H 3715 3805 50  0000 L CNN
F 2 "" H 3638 3700 50  0001 C CNN
F 3 "~" H 3600 3850 50  0001 C CNN
	1    3600 3850
	1    0    0    -1  
$EndComp
$Comp
L Device:C C1
U 1 1 600F5D4B
P 2900 3850
F 0 "C1" H 3015 3896 50  0000 L CNN
F 1 "30pF" H 3015 3805 50  0000 L CNN
F 2 "" H 2938 3700 50  0001 C CNN
F 3 "~" H 2900 3850 50  0001 C CNN
	1    2900 3850
	1    0    0    -1  
$EndComp
$Comp
L Device:Crystal Y1
U 1 1 600F6673
P 2900 3300
F 0 "Y1" V 2854 3431 50  0000 L CNN
F 1 "Crystal" V 2945 3431 50  0000 L CNN
F 2 "" H 2900 3300 50  0001 C CNN
F 3 "~" H 2900 3300 50  0001 C CNN
	1    2900 3300
	0    1    1    0   
$EndComp
Wire Wire Line
	3800 3000 3600 3000
Wire Wire Line
	2900 3000 2900 3150
Wire Wire Line
	3600 3150 3600 3000
Connection ~ 3600 3000
Wire Wire Line
	3600 3000 3300 3000
Wire Wire Line
	3300 2600 3300 3000
Connection ~ 3300 3000
Wire Wire Line
	3300 3000 2900 3000
Wire Wire Line
	3600 3450 3600 3600
Wire Wire Line
	3600 3600 4100 3600
Connection ~ 3600 3600
Wire Wire Line
	3600 3600 3600 3700
Connection ~ 4100 3600
Wire Wire Line
	4100 3600 4100 3700
Wire Wire Line
	2900 3450 2900 3700
$Comp
L power:GND #PWR01
U 1 1 600F8B3D
P 3600 4250
F 0 "#PWR01" H 3600 4000 50  0001 C CNN
F 1 "GND" H 3605 4077 50  0000 C CNN
F 2 "" H 3600 4250 50  0001 C CNN
F 3 "" H 3600 4250 50  0001 C CNN
	1    3600 4250
	1    0    0    -1  
$EndComp
Wire Wire Line
	3600 4250 3600 4150
Wire Wire Line
	3600 4150 4100 4150
Wire Wire Line
	4100 4150 4100 4000
Wire Wire Line
	3600 4000 3600 4150
Connection ~ 3600 4150
Wire Wire Line
	3600 4150 2900 4150
Wire Wire Line
	2900 4150 2900 4000
$EndSCHEMATC
